20170728 - Application Quality and Aspiration
…
####### HOW GOOD ARE THE STUDENTS WHO APPLY TO A SCHOOL? ###################
load("/data/nycdoe/clean_data/withfeatures_fullr1r1_09_15.Rdata")
load('/data/nycdoe/clean_data/stud_perf_quantiledGPA.Rdata')
perstudent_gpa_long <- 
  stud_perf_quantGPA %>%
  select(year, student_id_scram, grade_level, GPA, quantiled_GPA) %>%
  arrange(student_id_scram, year)
rm(stud_perf_quantGPA)
perstudent_gpa_long$quantiled_GPA <- factor(perstudent_gpa_long$quantiled_GPA, levels = c("1", "2", "3", "4", "5", "6", "7", "8", "9", "10", "Missing"))

# 2,291 rows missing school_name. This is from 31 programcodes (and dbns) without names.
withfeatures_fullr1r1_09_15 %>%
  filter(r1r1_schoolname == "Missing") %>% distinct(r1r1_dbn, r1programcode1)

## # A tibble: 31 x 2
##    r1programcode1 r1r1_dbn
##             <chr>    <chr>
##  1           X12Z   11X415
##  2           X54A   09X414
##  3           M92A   02M429
##  4           X15D   10X475
##  5           M09X   03M283
##  6           M56A   02M620
##  7           M98A   05M685
##  8           X66A   08X295
##  9           X40A   11X541
## 10           X74A   12X690
## # ... with 21 more rows
…
  withfeatures_fullr1r1_09_15 %>%
  group_by(year, r1r1_dbn) %>%
  select(year, r1r1_dbn, r1r1_schoolname, r1programcode1, r1r1_pgname, student_id_scram) %>%
  left_join(perstudent_gpa_long, by=c("student_id_scram", "year")) %>%
  arrange(year, r1r1_dbn, quantiled_GPA)
# there are only 7 schools in certain years that do NOT have applicants with missing quantiled_GPA. 4 schools have more than 1,000 applicants with missing quantiled_GPA.
# however, more important is that 10 schools have >90% applicants that miss out quantiled_GPA (9 out them have 100% applicants missing quantiled_GPA). 
(missing_applicant_perf_rate <-
  perschool_appquality %>%
  group_by(year, r1r1_dbn) %>%
  summarize(num_missing_student_perf = sum(quantiled_GPA == "Missing"),
            pc_applicants_missing_perf = num_missing_student_perf/n()) %>%
  arrange(desc(pc_applicants_missing_perf)))

## # A tibble: 2,792 x 4
## # Groups:   year [7]
##     year r1r1_dbn num_missing_student_perf pc_applicants_missing_perf
##    <dbl>    <chr>                    <int>                      <dbl>
##  1  2009   02M500                        2                  1.0000000
##  2  2010   02M432                        5                  1.0000000
##  3  2010   15K530                        3                  1.0000000
##  4  2011   04M635                        1                  1.0000000
##  5  2011   11X415                        1                  1.0000000
##  6  2012   14K322                        4                  1.0000000
##  7  2013   06M211                        1                  1.0000000
##  8  2014   09X276                        7                  1.0000000
##  9  2014   14K632                        2                  1.0000000
## 10  2012   07X223                      101                  0.9266055
## # ... with 2,782 more rows
…
# 47,414 rows like this, so it seems missing topchoice-percentile does NOT cover missing median-percentile
perapp_aspiration %>%
  filter(is.na(schoolpercentile_of_topchoice) & !is.na(median_schoolpercentile))

## # A tibble: 47,414 x 4
## # Groups:   year [11]
##     year student_id_scram schoolpercentile_of_topchoice
##    <dbl>            <chr>                         <dbl>
##  1  2005        100262063                            NA
##  2  2005        100362307                            NA
##  3  2005        100462043                            NA
##  4  2005        100462514                            NA
##  5  2005        100462613                            NA
##  6  2005        100462905                            NA
##  7  2005        100472674                            NA
##  8  2005        100652081                            NA
##  9  2005        100762013                            NA
## 10  2005        100762089                            NA
## # ... with 47,404 more rows, and 1 more variables:
## #   median_schoolpercentile <dbl>
…
