20170719-Plot Application Rates
…
Read and clean up data:

We read in, merge and clean up the data that map programs (name & code) to schools (name & code).

Note 1: from OpenData NYC, we are able to obtain data of three years: 2016, 2014-15, 2013-14.

Note 2: we read in two types of tables. One maps program codes to dbns. The other maps dbns to school names.

Then we do some sanity check, as follows:

# this code helps us find out that programs offered at the 9 specialized schools do not have codes.
allschoolcodes %>% 
  filter(is.na(pgcode) | pgcode == "NO CODE")

## # A tibble: 42 x 7
##      year pgcode                           pgname    dbn
##     <dbl>  <chr>                            <chr>  <chr>
##  1 201314   <NA> The Bronx High School of Science 10X445
##  2 201314   <NA>                         Fine Art 03M485
##  3 201314   <NA>                            Dance 03M485
##  4 201314   <NA>               Instrumental Music 03M485
##  5 201314   <NA>                      Vocal Music 03M485
##  6 201314   <NA>                            Drama 03M485
##  7 201314   <NA>                Technical Theatre 03M485
##  8 201314   <NA>                      Engineering 31R605
##  9 201314   <NA>                       Stuyvesant 02M475
## 10 201314   <NA>                  Pre-Engineering 05M692
## # ... with 32 more rows, and 3 more variables: school_name <chr>,
## #   interest <chr>, method <chr>
…
## # A tibble: 0 x 2
## # ... with 2 variables: pgcode <chr>, num_schools <int>

# but one school may have multiple programs
allschoolcodes %>%
  group_by(dbn) %>%
  summarize(num_programs = length(unique(pgcode))) %>%
  filter(num_programs != 1)

## # A tibble: 122 x 2
##       dbn num_programs
##     <chr>        <int>
##  1 01M448            3
##  2 02M374            3
##  3 02M400            2
##  4 02M408            4
##  5 02M420            2
##  6 02M425            2
##  7 02M519            5
##  8 02M520            2
##  9 02M533            2
## 10 02M542            4
## # ... with 112 more rows
…
