20170718
…
20170717

Per-grade survival

(df <- 
    bios %>%
    #filter(student_id_scram==420002000) %>%
    #arrange(student_id_scram) %>%
    select(student_id_scram, year, grade_level) %>%
    mutate(grade_level=as.numeric(grade_level)) %>%
    group_by(student_id_scram) %>%
    arrange(year) %>%
    mutate(did_continue=ifelse(!is.na(lead(grade_level)) & grade_level == lead(grade_level) - 1, 1, 0)) )

## # A tibble: 12,272,603 x 4
## # Groups:   student_id_scram [2,477,182]
##    student_id_scram  year grade_level did_continue
##               <int> <dbl>       <dbl>        <dbl>
##  1               NA  2005          12            0
##  2        420002000  2005           5            1
##  3         40002000  2005           7            1
##  4        750002000  2005           9            0
##  5        370002000  2005          10            1
##  6        701002000  2005           4            1
##  7        321002000  2005           3            1
##  8        651002000  2005           3            1
##  9        461002000  2005           3            0
## 10         81002000  2005           3            1
## # ... with 12,272,593 more rows
…
Per-grade survival by school

(df_with_schools <- 
    bios %>%
    #filter(student_id_scram==420002000) %>%
    #arrange(student_id_scram) %>%
    select(student_id_scram, year, grade_level, dbn) %>%
    mutate(grade_level=as.numeric(grade_level)) %>%
    group_by(student_id_scram) %>%
    arrange(year) %>%
    mutate(did_continue=ifelse(!is.na(lead(grade_level)) & grade_level == lead(grade_level) - 1, 1, 0)) )

## # A tibble: 12,272,603 x 5
## # Groups:   student_id_scram [2,477,182]
##    student_id_scram  year grade_level    dbn did_continue
##               <int> <dbl>       <dbl>  <chr>        <dbl>
##  1               NA  2005          12 75K811            0
##  2        420002000  2005           5 24Q013            1
##  3         40002000  2005           7 24Q005            1
##  4        750002000  2005           9 24Q455            0
##  5        370002000  2005          10 07X655            1
##  6        701002000  2005           4 01M142            1
##  7        321002000  2005           3 01M142            1
##  8        651002000  2005           3 01M315            1
##  9        461002000  2005           3 75M094            0
## 10         81002000  2005           3 01M142            1
## # ... with 12,272,593 more rows
…
How many students enter in each grade

(df_entered <- 
    bios %>%
    #filter(student_id_scram==420002000) %>%
    #arrange(student_id_scram) %>%
    select(student_id_scram, year, grade_level) %>%
    mutate(grade_level=as.numeric(grade_level)) %>%
    group_by(student_id_scram) %>%
    arrange(year) %>%
    mutate(did_enter=ifelse(is.na(lag(grade_level)) | grade_level != lag(grade_level) + 1, 1, 0)) )

## # A tibble: 12,272,603 x 4
## # Groups:   student_id_scram [2,477,182]
##    student_id_scram  year grade_level did_enter
##               <int> <dbl>       <dbl>     <dbl>
##  1               NA  2005          12         1
##  2        420002000  2005           5         1
##  3         40002000  2005           7         1
##  4        750002000  2005           9         1
##  5        370002000  2005          10         1
##  6        701002000  2005           4         1
##  7        321002000  2005           3         1
##  8        651002000  2005           3         1
##  9        461002000  2005           3         1
## 10         81002000  2005           3         1
## # ... with 12,272,593 more rows

entrance_rates <- 
  df_entered %>%
    group_by(year, grade_level) %>%
    #distinct(year, student_id_scram, did_continue) %>%
    #group_by(student_id_scram, grade_level) %>%
    summarise(entering_students=sum(did_enter), total_students=n(), entrance_rate=entering_students/total_students)

entrance_rates

## # A tibble: 165 x 5
## # Groups:   year [?]
##     year grade_level entering_students total_students entrance_rate
##    <dbl>       <dbl>             <dbl>          <int>         <dbl>
##  1  2005          -2               798            798             1
##  2  2005          -1             48415          48415             1
##  3  2005           0             72671          72671             1
##  4  2005           1             79957          79957             1
##  5  2005           2             78613          78613             1
##  6  2005           3             78036          78036             1
##  7  2005           4             76831          76831             1
##  8  2005           5             79358          79358             1
##  9  2005           6             78902          78902             1
## 10  2005           7             80827          80827             1
## # ... with 155 more rows
…
How many students enter in each grade by school

(df_entered_with_schools <- 
    bios %>%
    #filter(student_id_scram==420002000) %>%
    #arrange(student_id_scram) %>%
    select(student_id_scram, year, grade_level, dbn) %>%
    mutate(grade_level=as.numeric(grade_level)) %>%
    group_by(student_id_scram) %>%
    arrange(year) %>%
    mutate(did_enter=ifelse(is.na(lag(grade_level)) | grade_level != lag(grade_level) + 1, 1, 0)) )

## # A tibble: 12,272,603 x 5
## # Groups:   student_id_scram [2,477,182]
##    student_id_scram  year grade_level    dbn did_enter
##               <int> <dbl>       <dbl>  <chr>     <dbl>
##  1               NA  2005          12 75K811         1
##  2        420002000  2005           5 24Q013         1
##  3         40002000  2005           7 24Q005         1
##  4        750002000  2005           9 24Q455         1
##  5        370002000  2005          10 07X655         1
##  6        701002000  2005           4 01M142         1
##  7        321002000  2005           3 01M142         1
##  8        651002000  2005           3 01M315         1
##  9        461002000  2005           3 75M094         1
## 10         81002000  2005           3 01M142         1
## # ... with 12,272,593 more rows

entrance_rates_by_school <- 
  df_entered_with_schools %>%
    group_by(dbn, year, grade_level) %>%
    #distinct(year, student_id_scram, did_continue) %>%
    #group_by(student_id_scram, grade_level) %>%
    summarise(entering_students=sum(did_enter), total_students=n(), entrance_rate=entering_students/total_students)

entrance_rates_by_school

## # A tibble: 110,683 x 6
## # Groups:   dbn, year [?]
##       dbn  year grade_level entering_students total_students entrance_rate
##     <chr> <dbl>       <dbl>             <dbl>          <int>         <dbl>
##  1 01M015  2005          -1                15             15     1.0000000
##  2 01M015  2005           0                40             40     1.0000000
##  3 01M015  2005           1                41             41     1.0000000
##  4 01M015  2005           2                34             34     1.0000000
##  5 01M015  2005           3                41             41     1.0000000
##  6 01M015  2005           4                50             50     1.0000000
##  7 01M015  2005           5                32             32     1.0000000
##  8 01M015  2005           6                40             40     1.0000000
##  9 01M015  2006          -1                21             21     1.0000000
## 10 01M015  2006           0                18             33     0.5454545
## # ... with 110,673 more rows
…
True survivors - what fraction of students who started in grade K graduate high school 12 years later?

(entries_per_student <-
  df %>%
  group_by(student_id_scram) %>%
  summarise(count=n()))

## # A tibble: 2,477,182 x 2
##    student_id_scram count
##               <int> <int>
##  1             2160     9
##  2             2240     1
##  3             2259     4
##  4             2320     9
##  5             2339     7
##  6             2382     2
##  7             2400     4
##  8             2551     5
##  9             2607     1
## 10             2612     5
## # ... with 2,477,172 more rows
…
Question - since the data set ends at 2015, the 9th, 10th, and 11th graders are considered as only staying 1 year, even though they might have stayed longer. Filtering out everything after 2012 (the last year for which we have data for each student for 4 years from that point) doesnt solve the problem. How can we stagger the filters, so that in 2015 we only take the 12th graders, 2014 we take 11th and 12th, and 2013 we take 10th 11th and 12th?

# (entries_per_student <-
#   df %>%
#   group_by(student_id_scram) %>%
#   filter(grade_level>8) )

(entries_per_student <-
    df %>%
    group_by(student_id_scram) %>%
    filter(ifelse(year==2013, grade_level>9, 
                  ifelse(year==2014, grade_level>10,
                         ifelse(year==2015, grade_level>11, grade_level>8)))))

## # A tibble: 3,211,718 x 4
## # Groups:   student_id_scram [1,001,151]
##    student_id_scram  year grade_level did_continue
##               <int> <dbl>       <dbl>        <dbl>
##  1               NA  2005          12            0
##  2        750002000  2005           9            0
##  3        370002000  2005          10            1
##  4        354002000  2005           9            1
##  5        840002100  2005          10            1
##  6        980002100  2005           9            1
##  7        501002100  2005          10            0
##  8         71002100  2005          11            1
##  9        881002100  2005          11            1
## 10        972002100  2005          10            0
## # ... with 3,211,708 more rows
…
new_df_2$grade[new_df_2$grade=="perc_ninth"] <- 9
new_df_2$grade[new_df_2$grade=="perc_tenth"] <- 10
new_df_2$grade[new_df_2$grade=="perc_eleventh"] <- 11
new_df_2$grade[new_df_2$grade=="perc_twelfth"] <- 12

new_df_2 <-
  new_df_2 %>%
  mutate(grade=as.numeric(grade))

new_df_2

## # A tibble: 44 x 3
##     year grade num_students
##    <dbl> <dbl>        <dbl>
##  1  2005     9 1.0000000000
##  2  2005    10 0.6351372742
##  3  2005    11 0.0012663348
##  4  2005    12 0.0002462318
##  5  2006     9 1.0000000000
##  6  2006    10 0.6568620199
##  7  2006    11 0.4439369001
##  8  2006    12 0.0130009432
##  9  2007     9 1.0000000000
## 10  2007    10 0.6705426727
## # ... with 34 more rows
…
