20170801 - Application Aspiration (cont. of 0728 App Quality and Aspiration)
…
# 260 applicants (across all years) account for this
applicants_ethnicity_and_borough %>% filter(borough %in% c("Y", "Z", NA)) %>% distinct(year, student_id_scram)

## # A tibble: 260 x 2
##     year student_id_scram
##    <dbl>            <chr>
##  1  2005        591462461
##  2  2005        407362053
##  3  2005        468462277
##  4  2005        975462906
##  5  2005        950002122
##  6  2005        887552868
##  7  2005        563552897
##  8  2005        132962372
##  9  2005        483952144
## 10  2005        347262314
## # ... with 250 more rows
…
# 83,825 rows missing topchoice-percentile 
perapp_aspiration %>%
  filter(is.na(schoolpercentile_of_topchoice))

## # A tibble: 83,825 x 6
## # Groups:   year, student_id_scram, borough, ethnicity [83,825]
##     year student_id_scram   borough ethnicity feeder_quality
##    <dbl>            <chr>     <chr>     <chr>          <chr>
##  1  2005        100262063 The Bronx     Black            Bad
##  2  2005        100362307  Brooklyn     Black           Good
##  3  2005        100462043    Queens     White           Good
##  4  2005        100462463 The Bronx     Black           Good
##  5  2005        100462514 Manhattan     White           Good
##  6  2005        100462613    Queens     Asian           Good
##  7  2005        100462745 The Bronx     Black            Bad
##  8  2005        100462905 The Bronx     Black            Bad
##  9  2005        100472674  Brooklyn     Black            Bad
## 10  2005        100652081 The Bronx  Hispanic            Bad
## # ... with 83,815 more rows, and 1 more variables:
## #   schoolpercentile_of_topchoice <dbl>
…
