20170731 - Do You Get What You Want (cont. 3)
…
#### ANY_LAG_OFFER ####
# since we're only interested in whether or not you get offered by LaGuardia, we will create a new binary variable for this.
satisfied_09_15 <-
  satisfied_09_15 %>%
  mutate(lag_offered = as.numeric(any_lag_offer > 0))

#### LAGUARDIA APPLIED ######
# the NA's in 2014 and 2015 are so consistent. When we checked, they do not have r1programcode1-2-3, type1, or eligibility1. One third of them did NOT take the SHSAT, while two-thirds have NA so we can't know. 1,467 of them took shsat. shsat_offer is all NA.
satisfied_09_15 %>%
  filter(is.na(lag_arts_applied)) #%>% count(shsat_tested)

## # A tibble: 3,722 x 29
##     year student_id_scram r1programcode1 r1programtype1 r1eligibility1
##    <dbl>            <chr>          <chr>          <chr>          <dbl>
##  1  2014        690102256           <NA>           <NA>              0
##  2  2014        486102217           <NA>           <NA>              0
##  3  2014        502102868           <NA>           <NA>              0
##  4  2014        114202113           <NA>           <NA>              0
##  5  2014        833202537           <NA>           <NA>              0
##  6  2014        579202249           <NA>           <NA>              0
##  7  2014        461202259           <NA>           <NA>              0
##  8  2014         30202279           <NA>           <NA>              0
##  9  2014        338202189           <NA>           <NA>              0
## 10  2014        783202599           <NA>           <NA>              0
## # ... with 3,712 more rows, and 24 more variables: r1programcode2 <chr>,
## #   r1programcode3 <chr>, final_disposition <chr>,
## #   final_disposition_dbn <chr>, final_disposition_round <chr>,
## #   shsat_tested <dbl>, shsat_offer <dbl>, any_lag_offer <int>,
## #   lag_arts_applied <chr>, lag_arts_offer <chr>, lag_dance_applied <chr>,
## #   lag_dance_offer <chr>, lag_instr_applied <chr>, lag_instr_offer <chr>,
## #   lag_vocal_applied <chr>, lag_vocal_offer <chr>,
## #   lag_drama_applied <chr>, lag_drama_offer <chr>,
## #   lag_theatre_applied <chr>, lag_theatre_offer <chr>, borough <chr>,
…
Students features (demo & perf)

# OLD DATA: load in data on students' quantiled GPA
load('/data/nycdoe/clean_data/stud_perf_quantiledGPA.Rdata')
perstudent_perf <- stud_perf_quantGPA
rm(stud_perf_quantGPA)

# this table has 4.4 million rows (compared to the 12mi+ before)
(perstudent_gpa_long <-
  perstudent_perf %>%
  filter(student_id_scram %in% satisfied_09_15$student_id_scram) %>%
  select(year, student_id_scram, grade_level, GPA, quantiled_GPA) %>%
  arrange(student_id_scram, year))

## # A tibble: 4,431,374 x 5
##     year student_id_scram grade_level      GPA quantiled_GPA
##    <dbl>            <chr>       <int>    <dbl>         <chr>
##  1  2005        100002032           2       NA       Missing
##  2  2006        100002032           3       NA       Missing
##  3  2007        100002032           4       NA       Missing
##  4  2008        100002032           5       NA       Missing
##  5  2009        100002032           6 82.71429             6
##  6  2010        100002032           7 79.72727             5
##  7  2011        100002032           8 73.00000             3
##  8  2012        100002032           9       NA       Missing
##  9  2013        100002032          10       NA       Missing
## 10  2014        100002032          11       NA       Missing
## # ... with 4,431,364 more rows
…
High schools features

# there are 152 `r1r1_dbn` that are NOT in `hs_features_new` - this is 10,986 (2.274%) out of all applications!
withfeatures_fullr1r1_09_15 %>%
  filter(!(r1r1_dbn %in% hs_features_new$dbn)) #%>% distinct(r1programcode1) 

## # A tibble: 10,986 x 56
##     year student_id_scram r1programcode1     r1programtype1 r1eligibility1
##    <dbl>            <chr>          <chr>              <chr>          <dbl>
##  1  2009        361502994           X17A Limited Unscreened              1
##  2  2009        624802814           X49A Limited Unscreened              1
##  3  2009        157472868           X17A Limited Unscreened              1
##  4  2009        353472968           X60F           Ed. Opt.              1
##  5  2009        203472498           X17A Limited Unscreened              1
##  6  2009        621472061           X17A Limited Unscreened              1
##  7  2009        455902764           X17A Limited Unscreened              1
##  8  2009        606902895           X17A Limited Unscreened              1
##  9  2009        330862457           M60J           Audition              1
## 10  2009        584862128           X17A Limited Unscreened              1
## # ... with 10,976 more rows, and 51 more variables: r1programcode2 <chr>,
## #   r1programcode3 <chr>, final_disposition <chr>,
## #   final_disposition_dbn <chr>, final_disposition_round <chr>,
## #   shsat_tested <dbl>, shsat_offer <dbl>, any_lag_offer <int>,
## #   lag_arts_applied <dbl>, lag_arts_offer <dbl>, lag_dance_applied <dbl>,
## #   lag_dance_offer <dbl>, lag_instr_applied <dbl>, lag_instr_offer <dbl>,
## #   lag_vocal_applied <dbl>, lag_vocal_offer <dbl>,
## #   lag_drama_applied <dbl>, lag_drama_offer <dbl>,
## #   lag_theatre_applied <dbl>, lag_theatre_offer <dbl>, borough <chr>,
…
# there are almost 300 HIGH schools in `hs_features_new` that do not exist in the full code-school map. Because we map `r1programcode1` to `r1r1_dbn` through the `percode_schoolmapping_fuller` table, this missing-out means there are choice programs that don't have a chance to be connected to school features.
hs_features_new %>%
  filter(!is.na(English_regents)) %>%
  filter(!(dbn %in% percode_schoolmapping_fuller$dbn))

## # A tibble: 272 x 17
##       dbn total_stud perc_grad perc_poverty  perc_White perc_Black
##     <chr>      <int>     <dbl>        <dbl>       <dbl>      <dbl>
##  1 01M458       1351  31.09656    0.8171725 0.031828275 0.35603257
##  2 01M515       5814  54.59985    0.6652907 0.008427933 0.06019952
##  3 01M545        232        NA    0.8836207 0.025862069 0.01724138
##  4 01M650       2417  63.32556    0.7989243 0.045510964 0.37980968
##  5 02M313       2505  59.18828    0.7321357 0.074650699 0.41037924
##  6 02M394       1800  68.42105    0.9633333 0.054444444 0.07944444
##  7 02M409       1674  69.96700    0.8632019 0.016726404 0.30704898
##  8 02M440       8887  60.61279    0.9033420 0.027905930 0.25936762
##  9 02M442       1671  55.55556    0.6223818 0.152004788 0.36804309
## 10 02M445        282  67.51055    0.9964539 0.014184397 0.19858156
## # ... with 262 more rows, and 11 more variables: perc_Hispanic <dbl>,
## #   perc_MultiRacial <dbl>, perc_NativeAmer <dbl>, perc_Asian <dbl>,
## #   attendance <dbl>, English_regents <dbl>, Math_regents <dbl>,
## #   History_regents <dbl>, Science_regents <dbl>, percentile <dbl>,
## #   rank <dbl>
…
